Overlap of somatic mutations with CNV regions
…
Read copy-number aberration data

First, read in deletion regions for each of the fibroblast lines. We format these regions into GenomicRanges objects for easy overlap with somatic mutation sites.

deletions_df <- read_tsv("data/cnv/filtered_deletions.txt",
                          skip = 1,
                          col_names = c("ID", "Chromosome", "Start", "End", 
                                        "Copy_Number_state", "Quality", "nSites", 
                                        "nHETs"),
                          col_types = "cciiidii")
deletions_df <- mutate(deletions_df, 
                       line = gsub("summary.", "", gsub(".tabRG", "", ID)))
deletions_df

# A tibble: 1,265 x 9
   ID    Chromosome  Start    End Copy_Number_sta… Quality nSites nHETs
   <chr> <chr>       <int>  <int>            <int>   <dbl>  <int> <int>
 1 summ… 4          6.45e7 6.56e7                1    14.4     78     2
 2 summ… 13         1.94e7 2.02e7                1    16.4     91     0
 3 summ… 8          4.70e7 4.86e7                1     5.2     69     0
 4 summ… 9          7.47e7 7.67e7                1    13.1    221     1
 5 summ… X          2.86e6 8.85e7                1    24.6   6740     7
 6 summ… X          9.24e7 1.55e8                1    34     5502     4
 7 summ… X          3.60e6 8.85e7                1    33.6   6559     3
 8 summ… 14         4.05e7 4.19e7                1    15.5    117     0
 9 summ… 4          1.32e8 1.33e8                1    15      104     1
10 summ… 8          4.34e7 4.78e7                1     8.1     45     2
# … with 1,255 more rows, and 1 more variable: line <chr>
…
Next, we read in insertion regions, again formatting these regions into GenomicRanges objects.

insertions_df <- read_tsv("data/cnv/filtered_insertions.txt",
                          skip = 1,
                          col_names = c("ID", "Chromosome", "Start", "End", 
                                        "Copy_Number_state", "Quality", "nSites", 
                                        "nHETs"),
                          col_types = "cciiidii")
insertions_df <- mutate(insertions_df, 
                       line = gsub("summary.", "", gsub(".tabRG", "", ID)))
insertions_df

# A tibble: 166 x 9
   ID    Chromosome  Start    End Copy_Number_sta… Quality nSites nHETs
   <chr> <chr>       <int>  <int>            <int>   <dbl>  <int> <int>
 1 summ… 11         1.34e8 1.35e8                3    15.5     57    37
 2 summ… 2          3.26e7 3.33e7                3    20.2    144    14
 3 summ… 2          3.26e7 3.33e7                3    22.3    142    14
 4 summ… 11         5.03e7 5.12e7                3    12.9     20    10
 5 summ… 11         4.85e7 5.12e7                3    15.4    104    16
 6 summ… 21         3.90e7 3.98e7                3    23.6    108    54
 7 summ… 10         4.76e7 4.80e7                3    14       25    16
 8 summ… 10         4.71e7 4.80e7                3    12.6     51    19
 9 summ… 1          1.89e8 1.90e8                3    12.7     13    10
10 summ… 1          1.89e8 1.90e8                3    11.6     14    10
# … with 156 more rows, and 1 more variable: line <chr>
…
