Differential expression across all donors - cardelino-relax results
…
Linking DE to selection

Selection defined using Williams et al 2018 models

The Williams et al 2018 model provides as output a “probability of selection”. We define lines with a probability of selection greater than 0.7 as “selected”, those with probability of selection less than 0.3 as “neutral” and the remaining lines as “undetermined”.

df_williams2018 <- read_csv("data/selection/p1-selection.csv")
colnames(df_williams2018) <- c("donor", "prob_select_williams2018", 
                               "selection_williams2018")
df_nbglm_nde <- left_join(df_nbglm_nde, df_williams2018)
df_williams2018

# A tibble: 32 x 3
   donor prob_select_williams2018 selection_williams2018
   <chr>                    <dbl> <chr>                 
 1 euts                     1     selected              
 2 fawm                     1     selected              
 3 feec                     1.000 selected              
 4 fikt                     1     selected              
 5 garx                     1     selected              
 6 gesg                     0.357 undetermined          
 7 heja                     0.470 undetermined          
 8 hipn                     0.318 undetermined          
 9 ieki                     0.994 selected              
10 joxm                     1     selected              
# … with 22 more rows
…
