Mutated gene analysis across all lines
…
Add variant consequences annotations to exome sites.

vep_best[["var_id"]] <- paste0("chr", vep_best[["Uploaded_variation"]])
vep_best[, c("var_id", "Location", "Consequence")]

# A tibble: 8,503 x 3
   var_id           Location          Consequence       
   <chr>            <chr>             <chr>             
 1 chr1:874501_C_T  1:874501-874501   missense_variant  
 2 chr1:915025_G_A  1:915025-915025   missense_variant  
 3 chr1:916622_C_T  1:916622-916622   intron_variant    
 4 chr1:985731_G_A  1:985731-985731   intron_variant    
 5 chr1:985732_G_A  1:985732-985732   intron_variant    
 6 chr1:1019508_G_A 1:1019508-1019508 missense_variant  
 7 chr1:1019509_G_A 1:1019509-1019509 synonymous_variant
 8 chr1:1116160_G_A 1:1116160-1116160 synonymous_variant
 9 chr1:1158664_G_A 1:1158664-1158664 synonymous_variant
10 chr1:1178463_T_A 1:1178463-1178463 missense_variant  
# … with 8,493 more rows
…
